log_id,access_id,owner_id,owner_name,owner_mobile,owner_info,date_added,modified_date,access_code,usage_type,admin_id,user_id
314,17,163,,260,"{""unit_number"":"""",""floor"":""7""}","2019-12-13 07:13:08","2019-12-13 04:13:08",,,
313,13,132,"Adam West",232,"{""unit_number"":""B3"",""floor"":""2""}","2019-10-09 00:23:30","2019-10-09 00:23:30",,,
312,13,132,"Adam West",232,"{""unit_number"":""B3"",""floor"":""2""}","2019-10-09 00:11:27","2019-10-09 00:11:27",,,
311,13,132,"Adam West",232,"{""unit_number"":""B3"",""floor"":""2""}","2019-10-09 00:09:20","2019-10-09 00:09:20",,,
310,13,132,"Adam West",232,"{""unit_number"":""B3"",""floor"":""2""}","2019-10-08 23:10:59","2019-10-08 23:10:59",,,
309,13,132,"Adam West",232,"{""unit_number"":""B3"",""floor"":""2""}","2019-10-08 22:51:36","2019-10-08 22:51:36",,,
308,13,132,"Adam West",232,"{""unit_number"":""B3"",""floor"":""2""}","2019-10-08 22:50:51","2019-10-08 22:50:51",,,
307,13,132,"Adam West",232,"{""unit_number"":""B3"",""floor"":""2""}","2019-10-08 22:43:53","2019-10-08 22:43:53",,,
306,13,132,"Adam West",232,"{""unit_number"":""B3"",""floor"":""2""}","2019-10-08 22:43:18","2019-10-08 22:43:18",,,
305,13,132,"Adam West",232,"{""unit_number"":""B3"",""floor"":""2""}","2019-10-08 22:38:41","2019-10-08 22:38:41",,,
304,13,132,"Adam West",232,"{""unit_number"":""B3"",""floor"":""2""}","2019-10-08 22:34:40","2019-10-08 22:34:40",,,
303,13,132,"Adam West",232,"{""unit_number"":""B3"",""floor"":""2""}","2019-10-08 22:34:18","2019-10-08 22:34:18",,,
302,13,132,"Adam West",232,"{""unit_number"":""B3"",""floor"":""2""}","2019-10-08 22:33:44","2019-10-08 22:33:44",,,
301,13,132,"Adam West",232,"{""unit_number"":""B3"",""floor"":""2""}","2019-10-08 22:29:18","2019-10-08 22:29:18",,,
300,13,132,"Adam West",232,"{""unit_number"":""B3"",""floor"":""2""}","2019-10-08 22:26:01","2019-10-08 22:26:02",,,
299,13,132,"Adam West",232,"{""unit_number"":""B3"",""floor"":""2""}","2019-10-08 22:23:55","2019-10-08 22:23:55",,,
298,13,132,"Adam West",232,"{""unit_number"":""B3"",""floor"":""2""}","2019-10-08 22:23:19","2019-10-08 22:23:19",,,
297,13,132,"Adam West",232,"{""unit_number"":""B3"",""floor"":""2""}","2019-10-09 10:42:37","2019-10-08 22:12:37",,,
296,10,5,"Alli Gant",105,"{""unit_number"":""304"",""floor"":""3""}","2019-08-12 09:20:52","2019-08-11 20:50:52",,,
295,10,5,"Alli Gant",105,"{""unit_number"":""304"",""floor"":""3""}","2019-08-12 09:20:22","2019-08-11 20:50:22",,,
294,9,5,"Alli Gant",105,"{""unit_number"":""304"",""floor"":""3""}","2019-08-12 09:19:24","2019-08-11 20:49:24",,,
293,5,68,"Property Manager",168,"{""unit_number"":"""",""floor"":""1""}","2019-04-15 13:21:37","2019-04-15 00:51:37",,,
292,5,68,"Property Manager",168,"{""unit_number"":"""",""floor"":""1""}","2019-04-15 13:21:08","2019-04-15 00:51:08",,,
291,5,68,"Property Manager",168,"{""unit_number"":"""",""floor"":""1""}","2019-04-15 13:20:48","2019-04-15 00:50:48",,,
290,5,68,"Property Manager",168,"{""unit_number"":"""",""floor"":""1""}","2019-04-15 13:20:31","2019-04-15 00:50:31",,,
289,5,68,"Property Manager",168,"{""unit_number"":"""",""floor"":""1""}","2019-04-15 13:20:12","2019-04-15 00:50:12",,,
288,5,68,"Property Manager",168,"{""unit_number"":"""",""floor"":""1""}","2019-04-15 13:19:56","2019-04-15 00:49:56",,,
287,5,68,"Property Manager",168,"{""unit_number"":"""",""floor"":""1""}","2019-04-07 12:01:57","2019-04-06 23:31:57",,,
286,5,68,"Property Manager",168,"{""unit_number"":"""",""floor"":""1""}","2019-04-06 19:59:28","2019-04-06 07:29:28",,,
285,5,68,"Property Manager",168,"{""unit_number"":"""",""floor"":""1""}","2019-04-06 15:53:22","2019-04-06 03:23:22",,,
284,5,68,"Property Manager",168,"{""unit_number"":"""",""floor"":""1""}","2019-04-06 15:26:12","2019-04-06 02:56:12",,,
283,5,68,"Property Manager",168,"{""unit_number"":"""",""floor"":""1""}","2019-04-06 12:33:42","2019-04-06 00:03:42",,,
282,5,68,"Property Manager",168,"{""unit_number"":"""",""floor"":""1""}","2019-04-06 12:07:59","2019-04-05 23:37:59",,,
281,5,68,"Property Manager",168,"{""unit_number"":"""",""floor"":""1""}","2019-04-08 07:16:07","2019-04-07 18:46:07",,,
280,5,68,"Property Manager",168,"{""unit_number"":"""",""floor"":""1""}","2019-04-08 07:15:01","2019-04-07 18:45:01",,,
279,5,68,"Property Manager",168,"{""unit_number"":"""",""floor"":""1""}","2019-04-08 07:14:22","2019-04-07 18:44:22",,,
278,5,68,"Property Manager",168,"{""unit_number"":"""",""floor"":""1""}","2019-04-08 07:14:00","2019-04-07 18:44:00",,,
277,5,68,"Property Manager",168,"{""unit_number"":"""",""floor"":""1""}","2019-04-08 07:13:40","2019-04-07 18:43:40",,,
276,5,68,"Property Manager",168,"{""unit_number"":"""",""floor"":""1""}","2019-04-08 07:13:19","2019-04-07 18:43:19",,,
275,5,68,"Property Manager",168,"{""unit_number"":"""",""floor"":""1""}","2019-04-08 07:12:41","2019-04-07 18:42:41",,,
274,5,68,"Property Manager",168,"{""unit_number"":"""",""floor"":""1""}","2019-04-08 07:12:14","2019-04-07 18:42:14",,,
273,5,68,"Property Manager",168,"{""unit_number"":"""",""floor"":""1""}","2019-04-08 07:07:01","2019-04-07 18:37:01",,,
272,5,68,"Property Manager",168,"{""unit_number"":"""",""floor"":""1""}","2019-04-08 07:06:31","2019-04-07 18:36:31",,,
271,5,68,"Property Manager",168,"{""unit_number"":"""",""floor"":""1""}","2019-04-08 07:06:03","2019-04-07 18:36:03",,,
270,5,68,"Property Manager",168,"{""unit_number"":"""",""floor"":""1""}","2019-04-08 07:05:33","2019-04-07 18:35:33",,,
269,5,68,"Property Manager",168,"{""unit_number"":"""",""floor"":""1""}","2019-04-08 07:02:09","2019-04-07 18:32:09",,,
268,5,68,"Property Manager",168,"{""unit_number"":"""",""floor"":""1""}","2019-04-08 07:01:38","2019-04-07 18:31:38",,,
267,5,68,"Property Manager",168,"{""unit_number"":"""",""floor"":""1""}","2019-04-08 07:00:49","2019-04-07 18:30:49",,,
266,5,68,"Property Manager",168,"{""unit_number"":"""",""floor"":""1""}","2019-04-08 06:58:05","2019-04-07 18:28:05",,,
265,5,68,"Property Manager",168,"{""unit_number"":"""",""floor"":""1""}","2019-04-08 06:57:58","2019-04-07 18:27:58",,,
264,5,68,"Property Manager",168,"{""unit_number"":"""",""floor"":""1""}","2019-04-08 06:56:35","2019-04-07 18:26:35",,,
263,5,68,"Property Manager",168,"{""unit_number"":"""",""floor"":""1""}","2019-04-08 06:55:52","2019-04-07 18:25:52",,,
262,5,68,"Property Manager",168,"{""unit_number"":"""",""floor"":""1""}","2019-04-08 06:55:31","2019-04-07 18:25:31",,,
261,5,68,"Property Manager",168,"{""unit_number"":"""",""floor"":""1""}","2019-04-08 06:55:03","2019-04-07 18:25:03",,,
260,5,68,"Property Manager",168,"{""unit_number"":"""",""floor"":""1""}","2019-04-08 06:51:32","2019-04-07 18:21:32",,,
259,5,68,"Property Manager",168,"{""unit_number"":"""",""floor"":""1""}","2019-04-08 06:50:27","2019-04-07 18:20:27",,,
258,5,68,"Property Manager",168,"{""unit_number"":"""",""floor"":""1""}","2019-04-08 06:50:25","2019-04-07 18:20:25",,,
257,5,68,"Property Manager",168,"{""unit_number"":"""",""floor"":""1""}","2019-04-08 06:50:07","2019-04-07 18:20:07",,,
256,5,68,"Property Manager",168,"{""unit_number"":"""",""floor"":""1""}","2019-04-08 06:48:50","2019-04-07 18:18:50",,,
255,5,68,"Property Manager",168,"{""unit_number"":"""",""floor"":""1""}","2019-04-08 06:47:55","2019-04-07 18:17:55",,,
254,5,68,"Property Manager",168,"{""unit_number"":"""",""floor"":""1""}","2019-04-08 06:47:21","2019-04-07 18:17:21",,,
253,5,68,"Property Manager",168,"{""unit_number"":"""",""floor"":""1""}","2019-04-08 06:47:11","2019-04-07 18:17:11",,,
252,5,68,"Property Manager",168,"{""unit_number"":"""",""floor"":""1""}","2019-04-08 06:46:32","2019-04-07 18:16:32",,,
251,5,68,"Property Manager",168,"{""unit_number"":"""",""floor"":""1""}","2019-04-08 06:46:05","2019-04-07 18:16:05",,,
250,5,68,"Property Manager",168,"{""unit_number"":"""",""floor"":""1""}","2019-04-08 06:45:35","2019-04-07 18:15:35",,,
249,5,68,"Property Manager",168,"{""unit_number"":"""",""floor"":""1""}","2019-04-08 06:45:20","2019-04-07 18:15:20",,,
248,5,68,"Property Manager",168,"{""unit_number"":"""",""floor"":""1""}","2019-04-08 06:44:59","2019-04-07 18:14:59",,,
247,5,68,"Property Manager",168,"{""unit_number"":"""",""floor"":""1""}","2019-04-08 06:44:50","2019-04-07 18:14:50",,,
246,5,68,"Property Manager",168,"{""unit_number"":"""",""floor"":""1""}","2019-04-08 06:44:32","2019-04-07 18:14:32",,,
245,5,68,"Property Manager",168,"{""unit_number"":"""",""floor"":""1""}","2019-04-08 06:44:10","2019-04-07 18:14:10",,,
244,5,68,"Property Manager",168,"{""unit_number"":"""",""floor"":""1""}","2019-04-08 06:43:27","2019-04-07 18:13:27",,,
243,5,68,"Property Manager",168,"{""unit_number"":"""",""floor"":""1""}","2019-04-08 06:43:04","2019-04-07 18:13:04",,,
242,5,68,"Property Manager",168,"{""unit_number"":"""",""floor"":""1""}","2019-04-08 06:42:49","2019-04-07 18:12:49",,,
241,5,68,"Property Manager",168,"{""unit_number"":"""",""floor"":""1""}","2019-04-08 06:42:20","2019-04-07 18:12:20",,,
240,5,68,"Property Manager",168,"{""unit_number"":"""",""floor"":""1""}","2019-04-08 06:41:14","2019-04-07 18:11:14",,,
239,5,68,"Property Manager",168,"{""unit_number"":"""",""floor"":""1""}","2019-04-08 06:40:18","2019-04-07 18:10:18",,,
238,5,68,"Property Manager",168,"{""unit_number"":"""",""floor"":""1""}","2019-04-08 06:39:51","2019-04-07 18:09:51",,,
237,5,68,"Property Manager",168,"{""unit_number"":"""",""floor"":""1""}","2019-04-08 06:39:31","2019-04-07 18:09:31",,,
236,5,68,"Property Manager",168,"{""unit_number"":"""",""floor"":""1""}","2019-04-08 06:38:51","2019-04-07 18:08:51",,,
235,5,68,"Property Manager",168,"{""unit_number"":"""",""floor"":""1""}","2019-04-08 06:38:21","2019-04-07 18:08:21",,,
234,5,68,"Property Manager",168,"{""unit_number"":"""",""floor"":""1""}","2019-04-08 06:37:55","2019-04-07 18:07:55",,,
233,5,68,"Property Manager",168,"{""unit_number"":"""",""floor"":""1""}","2019-04-08 06:37:14","2019-04-07 18:07:14",,,
232,5,68,"Property Manager",168,"{""unit_number"":"""",""floor"":""1""}","2019-04-08 06:36:38","2019-04-07 18:06:38",,,
231,5,68,"Property Manager",168,"{""unit_number"":"""",""floor"":""1""}","2019-04-08 06:36:13","2019-04-07 18:06:13",,,
230,5,68,"Property Manager",168,"{""unit_number"":"""",""floor"":""1""}","2019-04-08 06:35:55","2019-04-07 18:05:55",,,
229,5,68,"Property Manager",168,"{""unit_number"":"""",""floor"":""1""}","2019-04-08 06:35:23","2019-04-07 18:05:23",,,
228,5,68,"Property Manager",168,"{""unit_number"":"""",""floor"":""1""}","2019-04-08 06:34:59","2019-04-07 18:04:59",,,
227,5,68,"Property Manager",168,"{""unit_number"":"""",""floor"":""1""}","2019-04-08 06:34:43","2019-04-07 18:04:43",,,
226,5,68,"Property Manager",168,"{""unit_number"":"""",""floor"":""1""}","2019-04-08 06:34:22","2019-04-07 18:04:22",,,
225,5,68,"Property Manager",168,"{""unit_number"":"""",""floor"":""1""}","2019-04-08 06:33:09","2019-04-07 18:03:09",,,
224,5,68,"Property Manager",168,"{""unit_number"":"""",""floor"":""1""}","2019-04-08 06:32:37","2019-04-07 18:02:37",,,
223,5,68,"Property Manager",168,"{""unit_number"":"""",""floor"":""1""}","2019-04-08 06:31:33","2019-04-07 18:01:33",,,
222,5,68,"Property Manager",168,"{""unit_number"":"""",""floor"":""1""}","2019-04-08 06:30:02","2019-04-07 18:00:02",,,
221,5,68,"Property Manager",168,"{""unit_number"":"""",""floor"":""1""}","2019-04-08 06:29:21","2019-04-07 17:59:21",,,
220,5,68,"Property Manager",168,"{""unit_number"":"""",""floor"":""1""}","2019-04-08 06:28:58","2019-04-07 17:58:58",,,
219,5,68,"Property Manager",168,"{""unit_number"":"""",""floor"":""1""}","2019-04-08 06:28:19","2019-04-07 17:58:19",,,
218,5,68,"Property Manager",168,"{""unit_number"":"""",""floor"":""1""}","2019-04-07 13:12:28","2019-04-07 00:42:28",,,
217,5,68,"Property Manager",168,"{""unit_number"":"""",""floor"":""1""}","2019-04-07 13:12:08","2019-04-07 00:42:08",,,
216,5,68,"Property Manager",168,"{""unit_number"":"""",""floor"":""1""}","2019-04-07 12:41:05","2019-04-07 00:11:05",,,
215,5,68,"Property Manager",168,"{""unit_number"":"""",""floor"":""1""}","2019-04-07 12:40:47","2019-04-07 00:10:47",,,
214,5,68,"Property Manager",168,"{""unit_number"":"""",""floor"":""1""}","2019-04-07 12:40:26","2019-04-07 00:10:26",,,
213,5,68,"Property Manager",168,"{""unit_number"":"""",""floor"":""1""}","2019-04-07 12:39:48","2019-04-07 00:09:48",,,
212,5,68,"Property Manager",168,"{""unit_number"":"""",""floor"":""1""}","2019-04-07 12:39:17","2019-04-07 00:09:17",,,
211,5,68,"Property Manager",168,"{""unit_number"":"""",""floor"":""1""}","2019-04-07 12:38:46","2019-04-07 00:08:46",,,
210,5,68,"Property Manager",168,"{""unit_number"":"""",""floor"":""1""}","2019-04-07 12:38:20","2019-04-07 00:08:20",,,
209,5,68,"Property Manager",168,"{""unit_number"":"""",""floor"":""1""}","2019-04-07 11:32:25","2019-04-06 23:02:25",,,
208,5,68,"Property Manager",168,"{""unit_number"":"""",""floor"":""1""}","2019-04-07 11:28:24","2019-04-06 22:58:24",,,
207,5,68,"Property Manager",168,"{""unit_number"":"""",""floor"":""1""}","2019-04-07 11:24:41","2019-04-06 22:54:41",,,
206,5,68,"Property Manager",168,"{""unit_number"":"""",""floor"":""1""}","2019-04-07 11:23:49","2019-04-06 22:53:49",,,
205,5,68,"Property Manager",168,"{""unit_number"":"""",""floor"":""1""}","2019-04-07 11:22:44","2019-04-06 22:52:44",,,
204,5,68,"Property Manager",168,"{""unit_number"":"""",""floor"":""1""}","2019-04-07 11:22:20","2019-04-06 22:52:20",,,
203,5,68,"Property Manager",168,"{""unit_number"":"""",""floor"":""1""}","2019-04-07 11:15:00","2019-04-06 22:45:00",,,
202,5,68,"Property Manager",168,"{""unit_number"":"""",""floor"":""1""}","2019-04-07 10:23:29","2019-04-06 21:53:29",,,
201,5,68,"Property Manager",168,"{""unit_number"":"""",""floor"":""1""}","2019-04-07 10:17:19","2019-04-06 21:47:19",,,
200,5,68,"Property Manager",168,"{""unit_number"":"""",""floor"":""1""}","2019-04-07 10:16:22","2019-04-06 21:46:22",,,
199,5,68,"Property Manager",168,"{""unit_number"":"""",""floor"":""1""}","2019-04-07 10:10:51","2019-04-06 21:40:51",,,
198,5,68,"Property Manager",168,"{""unit_number"":"""",""floor"":""1""}","2019-04-07 10:07:37","2019-04-06 21:37:37",,,
197,5,68,"Property Manager",168,"{""unit_number"":"""",""floor"":""1""}","2019-04-07 10:05:23","2019-04-06 21:35:23",,,
196,5,68,"Property Manager",168,"{""unit_number"":"""",""floor"":""1""}","2019-04-07 10:04:05","2019-04-06 21:34:05",,,
195,5,68,"Property Manager",168,"{""unit_number"":"""",""floor"":""1""}","2019-04-07 10:02:28","2019-04-06 21:32:28",,,
194,5,68,"Property Manager",168,"{""unit_number"":"""",""floor"":""1""}","2019-04-07 10:01:42","2019-04-06 21:31:42",,,
193,5,68,"Property Manager",168,"{""unit_number"":"""",""floor"":""1""}","2019-04-07 10:01:24","2019-04-06 21:31:24",,,
192,5,68,"Property Manager",168,"{""unit_number"":"""",""floor"":""1""}","2019-04-07 09:46:06","2019-04-06 21:16:06",,,
191,5,68,"Property Manager",168,"{""unit_number"":"""",""floor"":""1""}","2019-04-07 09:40:01","2019-04-06 21:10:01",,,
190,5,68,"Property Manager",168,"{""unit_number"":"""",""floor"":""1""}","2019-04-07 09:12:48","2019-04-06 20:42:48",,,
189,5,68,"Property Manager",168,"{""unit_number"":"""",""floor"":""1""}","2019-04-07 08:46:39","2019-04-06 20:16:39",,,
188,5,68,"Property Manager",168,"{""unit_number"":"""",""floor"":""1""}","2019-04-07 08:45:56","2019-04-06 20:15:56",,,
187,5,68,"Property Manager",168,"{""unit_number"":"""",""floor"":""1""}","2019-04-07 08:41:24","2019-04-06 20:11:24",,,
186,5,68,"Property Manager",168,"{""unit_number"":"""",""floor"":""1""}","2019-04-07 08:40:40","2019-04-06 20:10:40",,,
185,5,68,"Property Manager",168,"{""unit_number"":"""",""floor"":""1""}","2019-04-07 08:39:55","2019-04-06 20:09:55",,,
184,5,68,"Property Manager",168,"{""unit_number"":"""",""floor"":""1""}","2019-04-07 08:23:45","2019-04-06 19:53:45",,,
183,5,68,"Property Manager",168,"{""unit_number"":"""",""floor"":""1""}","2019-04-07 08:22:41","2019-04-06 19:52:41",,,
182,5,68,"Property Manager",168,"{""unit_number"":"""",""floor"":""1""}","2019-04-07 08:06:02","2019-04-06 19:36:02",,,
181,6,116,"Les Lojo",216,"{""unit_number"":"""",""floor"":""2""}","2019-04-07 08:05:45","2019-04-06 19:35:45",,,
180,3,68,"Property Manager",168,"{""unit_number"":"""",""floor"":""1""}","2019-01-28 02:14:52","2019-01-27 12:44:52",,,
179,3,68,"Property Manager",168,"{""unit_number"":"""",""floor"":""1""}","2019-01-23 10:49:39","2019-01-22 21:19:39",,,
178,1,4,"Alexander Android P",104,"{""unit_number"":""328"",""floor"":""3""}","2019-01-22 20:55:43","2019-01-22 07:25:43",425776,1,1
1,1,18,"Ewan Android P",118,"{""unit_number"":""217"",""floor"":""2""}","2019-01-10 16:54:40","2019-01-22 05:10:20",425776,1,1
