"Access id","Date added","Log id","Modified date","Owner id","Owner info","Owner mobile","Owner name","Access code","Usage type","Admin id"
17,"2019-12-13 07:13:08",314,"2019-12-13 17:43:08",163,"{""unit_number"":"""",""floor"":""7""}",260,,,,
13,"2019-10-09 00:23:30",313,"2019-10-09 12:53:30",132,"{""unit_number"":""B3"",""floor"":""2""}",232,"Adam West",,,
13,"2019-10-09 00:11:27",312,"2019-10-09 12:41:27",132,"{""unit_number"":""B3"",""floor"":""2""}",232,"Adam West",,,
13,"2019-10-09 00:09:20",311,"2019-10-09 12:39:20",132,"{""unit_number"":""B3"",""floor"":""2""}",232,"Adam West",,,
13,"2019-10-08 23:10:59",310,"2019-10-09 11:40:59",132,"{""unit_number"":""B3"",""floor"":""2""}",232,"Adam West",,,
13,"2019-10-08 22:51:36",309,"2019-10-09 11:21:36",132,"{""unit_number"":""B3"",""floor"":""2""}",232,"Adam West",,,
13,"2019-10-08 22:50:51",308,"2019-10-09 11:20:51",132,"{""unit_number"":""B3"",""floor"":""2""}",232,"Adam West",,,
13,"2019-10-08 22:43:53",307,"2019-10-09 11:13:53",132,"{""unit_number"":""B3"",""floor"":""2""}",232,"Adam West",,,
13,"2019-10-08 22:43:18",306,"2019-10-09 11:13:18",132,"{""unit_number"":""B3"",""floor"":""2""}",232,"Adam West",,,
13,"2019-10-08 22:38:41",305,"2019-10-09 11:08:41",132,"{""unit_number"":""B3"",""floor"":""2""}",232,"Adam West",,,
13,"2019-10-08 22:34:40",304,"2019-10-09 11:04:40",132,"{""unit_number"":""B3"",""floor"":""2""}",232,"Adam West",,,
13,"2019-10-08 22:34:18",303,"2019-10-09 11:04:18",132,"{""unit_number"":""B3"",""floor"":""2""}",232,"Adam West",,,
13,"2019-10-08 22:33:44",302,"2019-10-09 11:03:44",132,"{""unit_number"":""B3"",""floor"":""2""}",232,"Adam West",,,
13,"2019-10-08 22:29:18",301,"2019-10-09 10:59:18",132,"{""unit_number"":""B3"",""floor"":""2""}",232,"Adam West",,,
13,"2019-10-08 22:26:01",300,"2019-10-09 10:56:02",132,"{""unit_number"":""B3"",""floor"":""2""}",232,"Adam West",,,
13,"2019-10-08 22:23:55",299,"2019-10-09 10:53:55",132,"{""unit_number"":""B3"",""floor"":""2""}",232,"Adam West",,,
13,"2019-10-08 22:23:19",298,"2019-10-09 10:53:19",132,"{""unit_number"":""B3"",""floor"":""2""}",232,"Adam West",,,
13,"2019-10-09 10:42:37",297,"2019-10-09 10:42:37",132,"{""unit_number"":""B3"",""floor"":""2""}",232,"Adam West",,,
10,"2019-08-12 09:20:52",296,"2019-08-12 09:20:52",5,"{""unit_number"":""304"",""floor"":""3""}",105,"Alli Gant",,,
10,"2019-08-12 09:20:22",295,"2019-08-12 09:20:22",5,"{""unit_number"":""304"",""floor"":""3""}",105,"Alli Gant",,,
9,"2019-08-12 09:19:24",294,"2019-08-12 09:19:24",5,"{""unit_number"":""304"",""floor"":""3""}",105,"Alli Gant",,,
5,"2019-04-15 13:21:37",293,"2019-04-15 13:21:37",68,"{""unit_number"":"""",""floor"":""1""}",168,"Property Manager",,,
5,"2019-04-15 13:21:08",292,"2019-04-15 13:21:08",68,"{""unit_number"":"""",""floor"":""1""}",168,"Property Manager",,,
5,"2019-04-15 13:20:48",291,"2019-04-15 13:20:48",68,"{""unit_number"":"""",""floor"":""1""}",168,"Property Manager",,,
5,"2019-04-15 13:20:31",290,"2019-04-15 13:20:31",68,"{""unit_number"":"""",""floor"":""1""}",168,"Property Manager",,,
5,"2019-04-15 13:20:12",289,"2019-04-15 13:20:12",68,"{""unit_number"":"""",""floor"":""1""}",168,"Property Manager",,,
5,"2019-04-15 13:19:56",288,"2019-04-15 13:19:56",68,"{""unit_number"":"""",""floor"":""1""}",168,"Property Manager",,,
5,"2019-04-07 12:01:57",287,"2019-04-07 12:01:57",68,"{""unit_number"":"""",""floor"":""1""}",168,"Property Manager",,,
5,"2019-04-06 19:59:28",286,"2019-04-06 19:59:28",68,"{""unit_number"":"""",""floor"":""1""}",168,"Property Manager",,,
5,"2019-04-06 15:53:22",285,"2019-04-06 15:53:22",68,"{""unit_number"":"""",""floor"":""1""}",168,"Property Manager",,,
5,"2019-04-06 15:26:12",284,"2019-04-06 15:26:12",68,"{""unit_number"":"""",""floor"":""1""}",168,"Property Manager",,,
5,"2019-04-06 12:33:42",283,"2019-04-06 12:33:42",68,"{""unit_number"":"""",""floor"":""1""}",168,"Property Manager",,,
5,"2019-04-06 12:07:59",282,"2019-04-06 12:07:59",68,"{""unit_number"":"""",""floor"":""1""}",168,"Property Manager",,,
5,"2019-04-08 07:16:07",281,"2019-04-08 07:16:07",68,"{""unit_number"":"""",""floor"":""1""}",168,"Property Manager",,,
5,"2019-04-08 07:15:01",280,"2019-04-08 07:15:01",68,"{""unit_number"":"""",""floor"":""1""}",168,"Property Manager",,,
5,"2019-04-08 07:14:22",279,"2019-04-08 07:14:22",68,"{""unit_number"":"""",""floor"":""1""}",168,"Property Manager",,,
5,"2019-04-08 07:14:00",278,"2019-04-08 07:14:00",68,"{""unit_number"":"""",""floor"":""1""}",168,"Property Manager",,,
5,"2019-04-08 07:13:40",277,"2019-04-08 07:13:40",68,"{""unit_number"":"""",""floor"":""1""}",168,"Property Manager",,,
5,"2019-04-08 07:13:19",276,"2019-04-08 07:13:19",68,"{""unit_number"":"""",""floor"":""1""}",168,"Property Manager",,,
5,"2019-04-08 07:12:41",275,"2019-04-08 07:12:41",68,"{""unit_number"":"""",""floor"":""1""}",168,"Property Manager",,,
5,"2019-04-08 07:12:14",274,"2019-04-08 07:12:14",68,"{""unit_number"":"""",""floor"":""1""}",168,"Property Manager",,,
5,"2019-04-08 07:07:01",273,"2019-04-08 07:07:01",68,"{""unit_number"":"""",""floor"":""1""}",168,"Property Manager",,,
5,"2019-04-08 07:06:31",272,"2019-04-08 07:06:31",68,"{""unit_number"":"""",""floor"":""1""}",168,"Property Manager",,,
5,"2019-04-08 07:06:03",271,"2019-04-08 07:06:03",68,"{""unit_number"":"""",""floor"":""1""}",168,"Property Manager",,,
5,"2019-04-08 07:05:33",270,"2019-04-08 07:05:33",68,"{""unit_number"":"""",""floor"":""1""}",168,"Property Manager",,,
5,"2019-04-08 07:02:09",269,"2019-04-08 07:02:09",68,"{""unit_number"":"""",""floor"":""1""}",168,"Property Manager",,,
5,"2019-04-08 07:01:38",268,"2019-04-08 07:01:38",68,"{""unit_number"":"""",""floor"":""1""}",168,"Property Manager",,,
5,"2019-04-08 07:00:49",267,"2019-04-08 07:00:49",68,"{""unit_number"":"""",""floor"":""1""}",168,"Property Manager",,,
5,"2019-04-08 06:58:05",266,"2019-04-08 06:58:05",68,"{""unit_number"":"""",""floor"":""1""}",168,"Property Manager",,,
5,"2019-04-08 06:57:58",265,"2019-04-08 06:57:58",68,"{""unit_number"":"""",""floor"":""1""}",168,"Property Manager",,,
5,"2019-04-08 06:56:35",264,"2019-04-08 06:56:35",68,"{""unit_number"":"""",""floor"":""1""}",168,"Property Manager",,,
5,"2019-04-08 06:55:52",263,"2019-04-08 06:55:52",68,"{""unit_number"":"""",""floor"":""1""}",168,"Property Manager",,,
5,"2019-04-08 06:55:31",262,"2019-04-08 06:55:31",68,"{""unit_number"":"""",""floor"":""1""}",168,"Property Manager",,,
5,"2019-04-08 06:55:03",261,"2019-04-08 06:55:03",68,"{""unit_number"":"""",""floor"":""1""}",168,"Property Manager",,,
5,"2019-04-08 06:51:32",260,"2019-04-08 06:51:32",68,"{""unit_number"":"""",""floor"":""1""}",168,"Property Manager",,,
5,"2019-04-08 06:50:27",259,"2019-04-08 06:50:27",68,"{""unit_number"":"""",""floor"":""1""}",168,"Property Manager",,,
5,"2019-04-08 06:50:25",258,"2019-04-08 06:50:25",68,"{""unit_number"":"""",""floor"":""1""}",168,"Property Manager",,,
5,"2019-04-08 06:50:07",257,"2019-04-08 06:50:07",68,"{""unit_number"":"""",""floor"":""1""}",168,"Property Manager",,,
5,"2019-04-08 06:48:50",256,"2019-04-08 06:48:50",68,"{""unit_number"":"""",""floor"":""1""}",168,"Property Manager",,,
5,"2019-04-08 06:47:55",255,"2019-04-08 06:47:55",68,"{""unit_number"":"""",""floor"":""1""}",168,"Property Manager",,,
5,"2019-04-08 06:47:21",254,"2019-04-08 06:47:21",68,"{""unit_number"":"""",""floor"":""1""}",168,"Property Manager",,,
5,"2019-04-08 06:47:11",253,"2019-04-08 06:47:11",68,"{""unit_number"":"""",""floor"":""1""}",168,"Property Manager",,,
5,"2019-04-08 06:46:32",252,"2019-04-08 06:46:32",68,"{""unit_number"":"""",""floor"":""1""}",168,"Property Manager",,,
5,"2019-04-08 06:46:05",251,"2019-04-08 06:46:05",68,"{""unit_number"":"""",""floor"":""1""}",168,"Property Manager",,,
5,"2019-04-08 06:45:35",250,"2019-04-08 06:45:35",68,"{""unit_number"":"""",""floor"":""1""}",168,"Property Manager",,,
5,"2019-04-08 06:45:20",249,"2019-04-08 06:45:20",68,"{""unit_number"":"""",""floor"":""1""}",168,"Property Manager",,,
5,"2019-04-08 06:44:59",248,"2019-04-08 06:44:59",68,"{""unit_number"":"""",""floor"":""1""}",168,"Property Manager",,,
5,"2019-04-08 06:44:50",247,"2019-04-08 06:44:50",68,"{""unit_number"":"""",""floor"":""1""}",168,"Property Manager",,,
5,"2019-04-08 06:44:32",246,"2019-04-08 06:44:32",68,"{""unit_number"":"""",""floor"":""1""}",168,"Property Manager",,,
5,"2019-04-08 06:44:10",245,"2019-04-08 06:44:10",68,"{""unit_number"":"""",""floor"":""1""}",168,"Property Manager",,,
5,"2019-04-08 06:43:27",244,"2019-04-08 06:43:27",68,"{""unit_number"":"""",""floor"":""1""}",168,"Property Manager",,,
5,"2019-04-08 06:43:04",243,"2019-04-08 06:43:04",68,"{""unit_number"":"""",""floor"":""1""}",168,"Property Manager",,,
5,"2019-04-08 06:42:49",242,"2019-04-08 06:42:49",68,"{""unit_number"":"""",""floor"":""1""}",168,"Property Manager",,,
5,"2019-04-08 06:42:20",241,"2019-04-08 06:42:20",68,"{""unit_number"":"""",""floor"":""1""}",168,"Property Manager",,,
5,"2019-04-08 06:41:14",240,"2019-04-08 06:41:14",68,"{""unit_number"":"""",""floor"":""1""}",168,"Property Manager",,,
5,"2019-04-08 06:40:18",239,"2019-04-08 06:40:18",68,"{""unit_number"":"""",""floor"":""1""}",168,"Property Manager",,,
5,"2019-04-08 06:39:51",238,"2019-04-08 06:39:51",68,"{""unit_number"":"""",""floor"":""1""}",168,"Property Manager",,,
5,"2019-04-08 06:39:31",237,"2019-04-08 06:39:31",68,"{""unit_number"":"""",""floor"":""1""}",168,"Property Manager",,,
5,"2019-04-08 06:38:51",236,"2019-04-08 06:38:51",68,"{""unit_number"":"""",""floor"":""1""}",168,"Property Manager",,,
5,"2019-04-08 06:38:21",235,"2019-04-08 06:38:21",68,"{""unit_number"":"""",""floor"":""1""}",168,"Property Manager",,,
5,"2019-04-08 06:37:55",234,"2019-04-08 06:37:55",68,"{""unit_number"":"""",""floor"":""1""}",168,"Property Manager",,,
5,"2019-04-08 06:37:14",233,"2019-04-08 06:37:14",68,"{""unit_number"":"""",""floor"":""1""}",168,"Property Manager",,,
5,"2019-04-08 06:36:38",232,"2019-04-08 06:36:38",68,"{""unit_number"":"""",""floor"":""1""}",168,"Property Manager",,,
5,"2019-04-08 06:36:13",231,"2019-04-08 06:36:13",68,"{""unit_number"":"""",""floor"":""1""}",168,"Property Manager",,,
5,"2019-04-08 06:35:55",230,"2019-04-08 06:35:55",68,"{""unit_number"":"""",""floor"":""1""}",168,"Property Manager",,,
5,"2019-04-08 06:35:23",229,"2019-04-08 06:35:23",68,"{""unit_number"":"""",""floor"":""1""}",168,"Property Manager",,,
5,"2019-04-08 06:34:59",228,"2019-04-08 06:34:59",68,"{""unit_number"":"""",""floor"":""1""}",168,"Property Manager",,,
5,"2019-04-08 06:34:43",227,"2019-04-08 06:34:43",68,"{""unit_number"":"""",""floor"":""1""}",168,"Property Manager",,,
5,"2019-04-08 06:34:22",226,"2019-04-08 06:34:22",68,"{""unit_number"":"""",""floor"":""1""}",168,"Property Manager",,,
5,"2019-04-08 06:33:09",225,"2019-04-08 06:33:09",68,"{""unit_number"":"""",""floor"":""1""}",168,"Property Manager",,,
5,"2019-04-08 06:32:37",224,"2019-04-08 06:32:37",68,"{""unit_number"":"""",""floor"":""1""}",168,"Property Manager",,,
5,"2019-04-08 06:31:33",223,"2019-04-08 06:31:33",68,"{""unit_number"":"""",""floor"":""1""}",168,"Property Manager",,,
5,"2019-04-08 06:30:02",222,"2019-04-08 06:30:02",68,"{""unit_number"":"""",""floor"":""1""}",168,"Property Manager",,,
5,"2019-04-08 06:29:21",221,"2019-04-08 06:29:21",68,"{""unit_number"":"""",""floor"":""1""}",168,"Property Manager",,,
5,"2019-04-08 06:28:58",220,"2019-04-08 06:28:58",68,"{""unit_number"":"""",""floor"":""1""}",168,"Property Manager",,,
5,"2019-04-08 06:28:19",219,"2019-04-08 06:28:19",68,"{""unit_number"":"""",""floor"":""1""}",168,"Property Manager",,,
5,"2019-04-07 13:12:28",218,"2019-04-07 13:12:28",68,"{""unit_number"":"""",""floor"":""1""}",168,"Property Manager",,,
5,"2019-04-07 13:12:08",217,"2019-04-07 13:12:08",68,"{""unit_number"":"""",""floor"":""1""}",168,"Property Manager",,,
5,"2019-04-07 12:41:05",216,"2019-04-07 12:41:05",68,"{""unit_number"":"""",""floor"":""1""}",168,"Property Manager",,,
5,"2019-04-07 12:40:47",215,"2019-04-07 12:40:47",68,"{""unit_number"":"""",""floor"":""1""}",168,"Property Manager",,,
5,"2019-04-07 12:40:26",214,"2019-04-07 12:40:26",68,"{""unit_number"":"""",""floor"":""1""}",168,"Property Manager",,,
5,"2019-04-07 12:39:48",213,"2019-04-07 12:39:48",68,"{""unit_number"":"""",""floor"":""1""}",168,"Property Manager",,,
5,"2019-04-07 12:39:17",212,"2019-04-07 12:39:17",68,"{""unit_number"":"""",""floor"":""1""}",168,"Property Manager",,,
5,"2019-04-07 12:38:46",211,"2019-04-07 12:38:46",68,"{""unit_number"":"""",""floor"":""1""}",168,"Property Manager",,,
5,"2019-04-07 12:38:20",210,"2019-04-07 12:38:20",68,"{""unit_number"":"""",""floor"":""1""}",168,"Property Manager",,,
5,"2019-04-07 11:32:25",209,"2019-04-07 11:32:25",68,"{""unit_number"":"""",""floor"":""1""}",168,"Property Manager",,,
5,"2019-04-07 11:28:24",208,"2019-04-07 11:28:24",68,"{""unit_number"":"""",""floor"":""1""}",168,"Property Manager",,,
5,"2019-04-07 11:24:41",207,"2019-04-07 11:24:41",68,"{""unit_number"":"""",""floor"":""1""}",168,"Property Manager",,,
5,"2019-04-07 11:23:49",206,"2019-04-07 11:23:49",68,"{""unit_number"":"""",""floor"":""1""}",168,"Property Manager",,,
5,"2019-04-07 11:22:44",205,"2019-04-07 11:22:44",68,"{""unit_number"":"""",""floor"":""1""}",168,"Property Manager",,,
5,"2019-04-07 11:22:20",204,"2019-04-07 11:22:20",68,"{""unit_number"":"""",""floor"":""1""}",168,"Property Manager",,,
5,"2019-04-07 11:15:00",203,"2019-04-07 11:15:00",68,"{""unit_number"":"""",""floor"":""1""}",168,"Property Manager",,,
5,"2019-04-07 10:23:29",202,"2019-04-07 10:23:29",68,"{""unit_number"":"""",""floor"":""1""}",168,"Property Manager",,,
5,"2019-04-07 10:17:19",201,"2019-04-07 10:17:19",68,"{""unit_number"":"""",""floor"":""1""}",168,"Property Manager",,,
5,"2019-04-07 10:16:22",200,"2019-04-07 10:16:22",68,"{""unit_number"":"""",""floor"":""1""}",168,"Property Manager",,,
5,"2019-04-07 10:10:51",199,"2019-04-07 10:10:51",68,"{""unit_number"":"""",""floor"":""1""}",168,"Property Manager",,,
5,"2019-04-07 10:07:37",198,"2019-04-07 10:07:37",68,"{""unit_number"":"""",""floor"":""1""}",168,"Property Manager",,,
5,"2019-04-07 10:05:23",197,"2019-04-07 10:05:23",68,"{""unit_number"":"""",""floor"":""1""}",168,"Property Manager",,,
5,"2019-04-07 10:04:05",196,"2019-04-07 10:04:05",68,"{""unit_number"":"""",""floor"":""1""}",168,"Property Manager",,,
5,"2019-04-07 10:02:28",195,"2019-04-07 10:02:28",68,"{""unit_number"":"""",""floor"":""1""}",168,"Property Manager",,,
5,"2019-04-07 10:01:42",194,"2019-04-07 10:01:42",68,"{""unit_number"":"""",""floor"":""1""}",168,"Property Manager",,,
5,"2019-04-07 10:01:24",193,"2019-04-07 10:01:24",68,"{""unit_number"":"""",""floor"":""1""}",168,"Property Manager",,,
5,"2019-04-07 09:46:06",192,"2019-04-07 09:46:06",68,"{""unit_number"":"""",""floor"":""1""}",168,"Property Manager",,,
5,"2019-04-07 09:40:01",191,"2019-04-07 09:40:01",68,"{""unit_number"":"""",""floor"":""1""}",168,"Property Manager",,,
5,"2019-04-07 09:12:48",190,"2019-04-07 09:12:48",68,"{""unit_number"":"""",""floor"":""1""}",168,"Property Manager",,,
5,"2019-04-07 08:46:39",189,"2019-04-07 08:46:39",68,"{""unit_number"":"""",""floor"":""1""}",168,"Property Manager",,,
5,"2019-04-07 08:45:56",188,"2019-04-07 08:45:56",68,"{""unit_number"":"""",""floor"":""1""}",168,"Property Manager",,,
5,"2019-04-07 08:41:24",187,"2019-04-07 08:41:24",68,"{""unit_number"":"""",""floor"":""1""}",168,"Property Manager",,,
5,"2019-04-07 08:40:40",186,"2019-04-07 08:40:40",68,"{""unit_number"":"""",""floor"":""1""}",168,"Property Manager",,,
5,"2019-04-07 08:39:55",185,"2019-04-07 08:39:55",68,"{""unit_number"":"""",""floor"":""1""}",168,"Property Manager",,,
5,"2019-04-07 08:23:45",184,"2019-04-07 08:23:45",68,"{""unit_number"":"""",""floor"":""1""}",168,"Property Manager",,,
5,"2019-04-07 08:22:41",183,"2019-04-07 08:22:41",68,"{""unit_number"":"""",""floor"":""1""}",168,"Property Manager",,,
5,"2019-04-07 08:06:02",182,"2019-04-07 08:06:02",68,"{""unit_number"":"""",""floor"":""1""}",168,"Property Manager",,,
6,"2019-04-07 08:05:45",181,"2019-04-07 08:05:45",116,"{""unit_number"":"""",""floor"":""2""}",216,"Les Lojo",,,
3,"2019-01-28 02:14:52",180,"2019-01-28 02:14:52",68,"{""unit_number"":"""",""floor"":""1""}",168,"Property Manager",,,
3,"2019-01-23 10:49:39",179,"2019-01-23 10:49:39",68,"{""unit_number"":"""",""floor"":""1""}",168,"Property Manager",,,
1,"2019-01-22 20:55:43",178,"2019-01-22 20:55:43",4,"{""unit_number"":""328"",""floor"":""3""}",104,"Alexander Android P",425776,1,1
1,"2019-01-10 16:54:40",1,"2019-01-22 18:40:20",18,"{""unit_number"":""217"",""floor"":""2""}",118,"Ewan Android P",425776,1,1
