calldate,clid,src,dst,dcontext,channel,dstchannel,lastapp,lastdata,duration,billsec,disposition,amaflags,accountcode,uniqueid,userfield,did,recordingfile,cnum,cnam,outbound_cnum,outbound_cnam,dst_cnam,dateFormat
"2020-03-11 16:56:07","""8675312"" <8675312>",8675312,8675310,ext-local,SIP/8675312-0000001a,SIP/8675310-0000001b,Dial,"SIP/8675310,,TtrIb(func-apply-sipheaders^s^1)",24,23,ANSWERED,3,,1583970967.26,,,,8675312,8675312,,,,2020-03-11
"2020-03-11 16:54:55","""8675312"" <8675312>",8675312,8675310,ext-local,SIP/8675312-00000018,SIP/8675310-00000019,Dial,"SIP/8675310,,TtrIb(func-apply-sipheaders^s^1)",12,10,ANSWERED,3,,1583970895.24,,,,8675312,8675312,,,,2020-03-11
"2020-03-11 16:52:03","""8675312"" <8675312>",8675312,8675310,ext-local,SIP/8675312-00000016,SIP/8675310-00000017,Dial,"SIP/8675310,,TtrIb(func-apply-sipheaders^s^1)",57,55,ANSWERED,3,,1583970723.22,,,,8675312,8675312,,,,2020-03-11
"2020-03-11 16:51:02","""8675312"" <8675312>",8675312,8675310,ext-local,SIP/8675312-00000014,SIP/8675310-00000015,Dial,"SIP/8675310,,TtrIb(func-apply-sipheaders^s^1)",44,43,ANSWERED,3,,1583970662.20,,,,8675312,8675312,,,,2020-03-11
"2020-03-11 16:49:28","""8675312"" <8675312>",8675312,8675310,ext-local,SIP/8675312-00000012,SIP/8675310-00000013,Dial,"SIP/8675310,,TtrIb(func-apply-sipheaders^s^1)",83,82,ANSWERED,3,,1583970568.18,,,,8675312,8675312,,,,2020-03-11
"2020-03-11 16:46:12","""8675312"" <8675312>",8675312,8675310,ext-local,SIP/8675312-00000010,SIP/8675310-00000011,Dial,"SIP/8675310,,TtrIb(func-apply-sipheaders^s^1)",21,20,ANSWERED,3,,1583970372.16,,,,8675312,8675312,,,,2020-03-11
"2020-03-11 16:45:23","""8675312"" <8675312>",8675312,8675310,ext-local,SIP/8675312-0000000e,SIP/8675310-0000000f,Dial,"SIP/8675310,,TtrIb(func-apply-sipheaders^s^1)",33,32,ANSWERED,3,,1583970323.14,,,,8675312,8675312,,,,2020-03-11
"2020-03-11 16:44:30","""8675312"" <8675312>",8675312,8675310,ext-local,SIP/8675312-0000000c,SIP/8675310-0000000d,Dial,"SIP/8675310,,TtrIb(func-apply-sipheaders^s^1)",16,15,ANSWERED,3,,1583970270.12,,,,8675312,8675312,,,,2020-03-11
"2020-03-11 16:42:59","""8675312"" <8675312>",8675312,8675310,ext-local,SIP/8675312-0000000a,SIP/8675310-0000000b,Dial,"SIP/8675310,,TtrIb(func-apply-sipheaders^s^1)",58,57,ANSWERED,3,,1583970179.10,,,,8675312,8675312,,,,2020-03-11
"2020-03-11 16:41:44","""8675312"" <8675312>",8675312,8675310,ext-local,SIP/8675312-00000008,SIP/8675310-00000009,Dial,"SIP/8675310,,TtrIb(func-apply-sipheaders^s^1)",40,39,ANSWERED,3,,1583970104.8,,,,8675312,8675312,,,,2020-03-11
"2020-03-11 16:39:31","""8675312"" <8675312>",8675312,8675310,ext-local,SIP/8675312-00000006,SIP/8675310-00000007,Dial,"SIP/8675310,,TtrIb(func-apply-sipheaders^s^1)",34,33,ANSWERED,3,,1583969971.6,,,,8675312,8675312,,,,2020-03-11
"2020-03-11 16:38:19","""8675312"" <8675312>",8675312,8675310,ext-local,SIP/8675312-00000004,SIP/8675310-00000005,Dial,"SIP/8675310,,TtrIb(func-apply-sipheaders^s^1)",27,26,ANSWERED,3,,1583969899.4,,,,8675312,8675312,,,,2020-03-11
