"User ID","First Name","Last Name","Unit Number","Floor","Email","followme1","followme2","followme3","followme4"
"36","Test3","Test4","202","2","test2@gmail.com","5555554567","","",""
"37","Test5","Test6","303","3","test3@gmail.com","5555559876","","",""
